{
  "Sector": {
    "Technology": {
      "Company_Size": {
        "Startups": {
          "Company_Age": {
            "1-3": {
              "Challenges": [
                "Acquérir des talents techniques compétents",
                "Maintenir la sécurité des données et prévenir les cyberattaques",
                "Assurer la conformité aux réglementations en matière de protection des données",
                "Gérer les coûts liés aux licences logicielles et aux services cloud",
                "S'adapter rapidement aux évolutions du marché et aux Needs changeants des clients"
              ],
              "Issues": [
                "Comment recruter des talents techniques qualifiés dans un marché concurrentiel ?",
                "Comment garantir la sécurité des données sensibles de l'entreprise ?",
                "Comment rester conforme aux réglementations en constante évolution ?",
                "Comment optimiser les coûts liés à l'infrastructure technologique tout en maintenant la qualité ?",
                "Comment rester à la pointe de l'innovation et anticiper les Needs futurs du marché ?"
              ],
              "Needs": [
                "Accès à un pool de talents qualifiés",
                "Solutions de cybersécurité robustes",
                "Expertise en conformité réglementaire",
                "Optimisation des coûts informatiques",
                "Stratégies d'innovation et de développement agile", 
                "Développement logiciel spécialisé",
                "Consultants en efficacité énergétique",
                "Ingénieurs en électronique",
                "Développement d'applications mobiles",
                "Consultants en cybersécurité",
                "Experts en UX/UI",
                "Consultants en réglementation financière",
                "Experts en analyse de données financières",
                "Développement de plateformes de paiement sécurisées",
                "Consultants en sécurité résidentielle",
                "Spécialistes en intelligence artificielle",
                "Experts en développement web",
                "Ingénieurs logiciels"
              ],
              "Associated_Risks": [
                "Perte de compétitivité en raison d'un manque de talents",
                "Vulnérabilité aux attaques informatiques et aux violations de données",
                "Amendes et sanctions réglementaires pour non-conformité",
                "Dépassement du budget et inefficacité opérationnelle",
                "Obsolescence technologique et perte de marché"
              ], 
              "Freelance_Services": [
                {
                  "Mission": "Recrutement spécialisé",
                  "Description": "Identifier et recruter des talents techniques compétents pour l'entreprise."
                },
                {
                  "Mission": "Audit de sécurité",
                  "Description": "Évaluer les systèmes et processus de sécurité de l'entreprise, et proposer des recommandations pour renforcer la protection des données."
                },
                {
                  "Mission": "Audit de conformité",
                  "Description": "Analyser les pratiques de l'entreprise par rapport aux réglementations en matière de protection des données et proposer des mesures correctives si nécessaire."
                },
                {
                  "Mission": "Analyse des coûts",
                  "Description": "Étudier les dépenses liées aux licences logicielles et aux services cloud de l'entreprise, et identifier des opportunités d'optimisation."
                },
                {
                  "Mission": "Veille stratégique",
                  "Description": "Surveiller les tendances du marché et les évolutions technologiques pour aider l'entreprise à anticiper les Needs changeants des clients."
                }
              ]
            }
          }
        }
      }
    }, 
    "E-commerce": {
      "Company_Size": {
        "Startups": {
          "Company_Age": {
            "1-3": {
              "Challenges": [
                "Gérer la concurrence avec les géants du e-commerce",
                "Optimiser le parcours client pour réduire les taux d'abandon de panier",
                "Fidéliser les clients et encourager les achats récurrents",
                "Gérer efficacement les retours de produits",
                "Adapter les stratégies de tarification et de promotion"
              ],
              "Issues": [
                "Comment se démarquer dans la concurrence féroce avec les grands acteurs du e-commerce ?",
                "Comment améliorer le parcours client pour réduire les abandons de panier ?",
                "Comment fidéliser les clients et stimuler les achats répétés ?",
                "Comment gérer efficacement les retours de produits et maintenir la satisfaction client ?",
                "Comment ajuster les stratégies de tarification et de promotion pour rester compétitif ?"
              ],
              "Needs": [
                "Stratégies de marketing digital efficaces",
                "Amélioration de l'expérience client en ligne",
                "Solutions de fidélisation client et de gestion des retours",
                "Optimisation des stratégies de tarification et de promotion",
                "Analyse de données pour améliorer la prise de décision commerciale"
              ],
              "Associated_Risks": [
                "Perte de parts de marché face à une concurrence agressive",
                "Perte de revenus due à un parcours client inefficace",
                "Perte de clients due à une insatisfaction ou à des retours mal gérés",
                "Perte de rentabilité due à des stratégies de tarification inefficaces",
                "Décisions commerciales imprudentes basées sur des données incomplètes ou inexactes"
              ]
            }, 
            "Freelance_Services": [
              {
                "Mission": "Stratégies de marketing digital",
                "Description": "Développer et mettre en œuvre des stratégies de marketing en ligne pour aider l'entreprise à se démarquer dans un environnement concurrentiel."
              },
              {
                "Mission": "Amélioration de l'expérience client en ligne",
                "Description": "Optimiser le site web et les processus d'achat pour offrir une expérience utilisateur fluide et agréable."
              },
              {
                "Mission": "Solutions de fidélisation client",
                "Description": "Proposer des programmes de fidélisation et des stratégies pour encourager les achats récurrents et renforcer la relation avec les clients."
              },
              {
                "Mission": "Analyse de données",
                "Description": "Analyser les données clients et les comportements d'achat pour aider l'entreprise à prendre des décisions commerciales éclairées."
              },
              {
                "Mission": "Veille technologique",
                "Description": "Surveiller les nouvelles technologies et les tendances de l'e-commerce pour recommander des innovations pertinentes à l'entreprise."
              }
            ]
          }
        }
      }
    }, 
    "Health": {
      "Company_Size": {
        "Startups": {
          "Company_Age": {
            "1-3": {
              "Challenges": [
                "Innovation pour offrir des services de santé accessibles à tous",
                "Gestion des préoccupations en matière de confidentialité des données des patients",
                "Garantie de la qualité des soins tout en réduisant les coûts",
                "Adaptation aux nouvelles technologies médicales et à l'IA",
                "Attractivité des talents dans le secteur de la santé"
              ],
              "Issues": [
                "Comment innover pour rendre les services de santé plus accessibles à tous ?",
                "Comment gérer les préoccupations croissantes concernant la confidentialité des données des patients ?",
                "Comment maintenir des soins de haute qualité tout en réduisant les coûts associés ?",
                "Comment adopter et intégrer efficacement les nouvelles technologies médicales et l'IA ?",
                "Comment attirer et retenir les meilleurs talents dans le secteur de la santé ?"
              ],
              "Needs": [
                "Développement de solutions de santé innovantes",
                "Solutions de cybersécurité pour protéger les données des patients",
                "Optimisation des processus pour réduire les coûts tout en maintenant la qualité des soins",
                "Formation et intégration des nouvelles technologies médicales et de l'IA",
                "Stratégies de recrutement et de rétention des talents dans le secteur de la santé", 
                "Développement d'applications de santé mobiles",
                "Consultants en cybersécurité",
                "Experts en UX/UI",
                "Stratégie marketing digital",
                "Création de contenu informatif",
                "Analyse des données",
                "Programmes de fidélisation",
                "Experts en télémédecine",
                "Spécialistes en analyse médicale",
                "Consultants en conformité réglementaire"
              ],
              "Associated_Risks": [
                "Réticence du marché à adopter de nouvelles solutions de santé",
                "Violations de la confidentialité des données des patients et risques de sécurité associés",
                "Perte de qualité des soins due à une réduction des coûts",
                "Difficulté à suivre le rythme des avancées technologiques dans le domaine médical",
                "Pénurie de professionnels de la santé qualifiés et compétents"
              ], 
              "Freelance_Services": [
                {
                  "Mission": "Consultation en santé",
                  "Description": "Fournir des conseils et des recommandations en matière de santé et de bien-être pour aider les entreprises à développer des produits ou des services adaptés."
                },
                {
                  "Mission": "Développement d'applications de santé",
                  "Description": "Concevoir et développer des applications mobiles ou des plateformes en ligne axées sur la santé et le bien-être."
                },
                {
                  "Mission": "Formation en nutrition",
                  "Description": "Offrir des programmes de formation et des consultations pour aider les entreprises à promouvoir la santé et la nutrition."
                },
                {
                  "Mission": "Marketing de produits de bien-être",
                  "Description": "Élaborer des stratégies de marketing pour promouvoir les produits ou services liés à la santé et au bien-être."
                },
                {
                  "Mission": "Organisation d'événements de bien-être",
                  "Description": "Planifier et coordonner des événements promotionnels ou des séminaires sur le thème du bien-être pour sensibiliser et engager le public."
                }
              ]
            }
          }
        }
      }
    }, 
    "Education": {
      "Company_Size": {
        "Startups": {
          "Company_Age": {
            "1-3": {
              "Challenges": [
                "Création de programmes éducatifs attractifs et pertinents",
                "Adaptation aux nouvelles technologies et aux méthodes d'enseignement en ligne",
                "Engagement des étudiants et rétention tout au long du parcours éducatif",
                "Garantie de la qualité de l'enseignement et de l'évaluation des étudiants",
                "Accès à des financements et à des ressources pour soutenir le développement éducatif"
              ],
              "Issues": [
                "Comment concevoir des programmes éducatifs qui répondent aux Needs du marché et attirent les étudiants ?",
                "Comment intégrer efficacement les nouvelles technologies et les méthodes d'enseignement en ligne dans les programmes éducatifs existants ?",
                "Comment maintenir l'engagement et la motivation des étudiants tout au long de leur parcours éducatif ?",
                "Comment évaluer objectivement la qualité de l'enseignement et des résultats des étudiants ?",
                "Comment obtenir les financements et les ressources nécessaires pour développer et améliorer les programmes éducatifs ?"
              ],
              "Needs": [
                "Conception et développement de programmes éducatifs innovants",
                "Intégration de technologies éducatives et de plateformes d'apprentissage en ligne",
                "Stratégies d'engagement des étudiants et de soutien tout au long du parcours éducatif",
                "Méthodologies d'évaluation de l'apprentissage et des résultats des étudiants",
                "Accès à des investissements et à des partenariats pour financer le développement éducatif"
              ],
              "Associated_Risks": [
                "Perte de pertinence et d'attrait des programmes éducatifs face à la concurrence",
                "Difficulté à adopter et à intégrer efficacement les nouvelles technologies éducatives",
                "Décrochage et abandon des étudiants en raison d'un manque d'engagement et de soutien",
                "Baisse de la qualité de l'enseignement et des résultats des étudiants",
                "Limitations financières et manque de ressources pour développer et maintenir des programmes éducatifs de qualité"
              ], 
              "Freelance_Services": [
                {
                  "Mission": "Développement de contenu pédagogique",
                  "Description": "Créer des modules de formation, des cours en ligne ou des ressources pédagogiques pour les entreprises du secteur de l'éducation."
                },
                {
                  "Mission": "Conception de programmes éducatifs",
                  "Description": "Concevoir des programmes d'apprentissage sur mesure en fonction des Needs spécifiques des entreprises ou des institutions éducatives."
                },
                {
                  "Mission": "Formation en ligne",
                  "Description": "Animer des sessions de formation virtuelles ou créer des tutoriels en ligne pour aider les entreprises à dispenser des formations à distance."
                },
                {
                  "Mission": "Évaluation et suivi des performances",
                  "Description": "Développer des outils d'évaluation et de suivi pour mesurer l'efficacité des programmes de formation et identifier les domaines d'amélioration."
                },
                {
                  "Mission": "Consultation en technologie éducative",
                  "Description": "Fournir des conseils et une expertise technique pour intégrer efficacement la technologie dans les processus d'apprentissage."
                }
              ]
            }
          }
        }
      }
    }, 
    "Food": {
      "Company_Size": {
        "Startups": {
          "Company_Age": {
            "1-3": {
              "Challenges": [
                "Création d'un concept unique et attractif pour se démarquer",
                "Gestion des coûts d'approvisionnement et de la chaîne d'approvisionnement",
                "Fidélisation de la clientèle et promotion de la notoriété de la marque",
                "Gestion des réglementations alimentaires et de la sécurité alimentaire",
                "Adaptation aux tendances alimentaires et aux préférences des consommateurs"
              ],
              "Issues": [
                "Comment développer un concept de restauration unique et attrayant pour se démarquer sur le marché ?",
                "Comment optimiser les coûts d'approvisionnement et gérer efficacement la chaîne d'approvisionnement ?",
                "Comment fidéliser les clients et accroître la notoriété de la marque dans un marché concurrentiel ?",
                "Comment assurer la conformité aux réglementations alimentaires et garantir la sécurité alimentaire ?",
                "Comment suivre et anticiper les tendances alimentaires pour répondre aux Needs changeants des consommateurs ?"
              ],
              "Needs": [
                "Conception de concepts de restauration innovants",
                "Solutions de gestion de la chaîne d'approvisionnement et des coûts",
                "Stratégies de marketing et de fidélisation de la clientèle",
                "Conformité réglementaire et formation en matière de sécurité alimentaire",
                "Veille concurrentielle et analyse des tendances du marché alimentaire", 
                "Consultants agricoles spécialisés",
                "Stratégie marketing digital",
                "Création de contenu éducatif",
                "Analyse des données",
                "Programmes de fidélisation",
                "Experts en agriculture de précision"
              ],
              "Associated_Risks": [
                "Échec commercial en raison d'un concept non différencié ou peu attrayant",
                "Dépassement des coûts d'approvisionnement et de la chaîne d'approvisionnement inefficace",
                "Perte de clientèle due à une concurrence intense et à un manque de notoriété de la marque",
                "Sanctions réglementaires et atteinte à la réputation en cas de non-conformité aux normes alimentaires",
                "Perte de parts de marché en raison de l'incapacité à s'adapter aux préférences changeantes des consommateurs"
              ], 
              "Freelance_Services": [
                {
                  "Mission": "Conception de menu",
                  "Description": "Créer des menus innovants et attractifs en fonction des tendances alimentaires et des préférences des clients."
                },
                {
                  "Mission": "Consultation en gestion des stocks",
                  "Description": "Optimiser la gestion des stocks et des approvisionnements pour réduire les coûts et minimiser les pertes."
                },
                {
                  "Mission": "Marketing culinaire",
                  "Description": "Élaborer des stratégies de marketing pour promouvoir les restaurants et attirer de nouveaux clients grâce à une présentation attrayante des plats."
                },
                {
                  "Mission": "Formation du personnel",
                  "Description": "Offrir des sessions de formation pour le personnel en service et en cuisine afin d'améliorer la qualité du service et la satisfaction client."
                },
                {
                  "Mission": "Gestion de l'expérience client",
                  "Description": "Développer des programmes visant à améliorer l'expérience globale des clients, de la réservation au service en passant par le départ."
                }
              ]
            }
          }
        }
      }
    }, 
    "Sports": {
      "Company_Size": {
        "Startups": {
          "Company_Age": {
            "1-3": {
              "Challenges": [
                "Création d'une offre sportive attrayante et innovante",
                "Gestion des coûts liés aux installations sportives et à l'équipement",
                "Développement de programmes de fidélisation des membres et d'engagement de la communauté",
                "Concurrence avec d'autres acteurs du secteur sportif",
                "Adaptation aux tendances émergentes dans le domaine du sport et du bien-être"
              ],
              "Issues": [
                "Comment concevoir des offres sportives qui attirent et fidélisent les clients dans un marché concurrentiel ?",
                "Comment gérer efficacement les coûts liés aux installations sportives, à l'équipement et au personnel ?",
                "Comment encourager l'engagement des membres et créer un sentiment d'appartenance à la communauté ?",
                "Comment se démarquer des autres acteurs du secteur sportif et attirer une clientèle diversifiée ?",
                "Comment rester à jour avec les tendances émergentes et répondre aux Needs changeants des consommateurs dans le domaine du sport et du bien-être ?"
              ],
              "Needs": [
                "Innovation dans les offres sportives et les programmes de bien-être",
                "Gestion efficace des installations, de l'équipement et des ressources humaines",
                "Stratégies de fidélisation des membres et d'engagement communautaire",
                "Analyse concurrentielle et différenciation de la marque",
                "Surveillance continue des tendances du marché et ajustement des offres en conséquence"
              ],
              "Associated_Risks": [
                "Manque d'attrait et d'innovation dans les offres sportives",
                "Dépassement des coûts et gestion inefficace des ressources",
                "Perte de membres et baisse de l'engagement communautaire",
                "Difficulté à se démarquer dans un marché saturé et concurrentiel",
                "Obsolescence des offres et perte de pertinence face aux nouvelles tendances du marché"
              ], 
              "Freelance_Services": [
                {
                  "Mission": "Entraînement personnel",
                  "Description": "Fournir des séances d'entraînement personnalisées pour aider les clients à atteindre leurs objectifs de remise en forme."
                },
                {
                  "Mission": "Consultation en nutrition sportive",
                  "Description": "Concevoir des plans nutritionnels adaptés aux Needs spécifiques des sportifs pour optimiser leurs performances."
                },
                {
                  "Mission": "Gestion d'événements sportifs",
                  "Description": "Organiser et coordonner des événements sportifs, des tournois ou des compétitions pour promouvoir la participation et l'engagement communautaire."
                },
                {
                  "Mission": "Marketing sportif",
                  "Description": "Élaborer des stratégies de marketing pour promouvoir les événements sportifs, les clubs ou les athlètes professionnels."
                },
                {
                  "Mission": "Développement de programmes de formation",
                  "Description": "Créer des programmes d'entraînement spécialisés pour différents sports ou niveaux de compétence."
                }
              ]
            }
          }
        }
      }
    }, 
    "Ecology": {
      "Company_Size": {
        "Startups": {
          "Company_Age": {
            "1-3": {
              "Challenges": [
                "Création d'une offre attrayante et innovante",
                "Développement de programmes de fidélisation des membres et d'engagement de la communauté"
              ],
              "Issues": [
                "Comment encourager l'engagement des membres et créer un sentiment d'appartenance à la communauté ?",
                "Comment se démarquer des autres acteurs du secteur  et attirer une clientèle diversifiée ?"
              ],
              "Needs": [
                "Consultants en énergie renouvelable",
                "Ingénieurs environnementaux",
                "Spécialistes du marketing écologique",
                "Stratégie marketing digital",
                "Création de contenu",
                "Analyse des données",
                "Programmes de fidélisation",
                "Experts en gestion des déchets",
                "Spécialistes en éco-conception",
                "Consultants en certification environnementale"
              ],
              "Associated_Risks": [
                "Dépassement des coûts et gestion inefficace des ressources",
                "Perte de membres et baisse de l'engagement communautaire",
                "Difficulté à se démarquer dans un marché saturé et concurrentiel"
              ], 
              "Freelance_Services": [
                {
                  "Mission": "Entraînement personnel",
                  "Description": "Fournir des séances d'entraînement personnalisées pour aider les clients à atteindre leurs objectifs de remise en forme."
                },
                {
                  "Mission": "Marketing",
                  "Description": "Élaborer des stratégies de marketing pour promouvoir les événements sportifs, les clubs ou les athlètes professionnels."
                }
              ]
            }
          }
        }
      }
    }, 
    "Finance": {
      "Company_Size": {
        "Startups": {
          "Company_Age": {
            "1-3": {
              "Challenges": [
                "Développement de programmes de fidélisation des membres et d'engagement de la communauté"
              ],
              "Issues": [
                "Comment encourager l'engagement des membres et créer un sentiment d'appartenance à la communauté ?"
              ],
              "Needs": [
                "Consultants en réglementation financière",
                "Experts en analyse de données financières",
                "Développement de plateformes de paiement sécurisées",
                "Stratégie marketing digital",
                "Création de contenu",
                "Analyse des données",
                "Programmes de fidélisation",
                "Conseillers financiers",
                "Experts en gestion de patrimoine",
                "Spécialistes en prêts hypothécaires"
              ],
              "Associated_Risks": [
                "Dépassement des coûts et gestion inefficace des ressources",
                "Perte de membres et baisse de l'engagement communautaire",
                "Difficulté à se démarquer dans un marché saturé et concurrentiel"
              ], 
              "Freelance_Services": [
                {
                  "Mission": "Entraînement personnel",
                  "Description": "Fournir des séances d'entraînement personnalisées pour aider les clients à atteindre leurs objectifs de remise en forme."
                },
                {
                  "Mission": "Marketing",
                  "Description": "Élaborer des stratégies de marketing pour promouvoir les événements sportifs, les clubs ou les athlètes professionnels."
                }
              ]
            }
          }
        }
      }
    }, 
    "iot": {
      "Company_Size": {
        "Startups": {
          "Company_Age": {
            "1-3": {
              "Challenges": [
                "Développement de programmes de fidélisation des membres et d'engagement de la communauté"
              ],
              "Issues": [
                "Comment encourager l'engagement des membres et créer un sentiment d'appartenance à la communauté ?"
              ],
              "Needs": [
                "Développement de logiciels de domotique",
                "Installateurs d'équipements domotiques",
                "Consultants en sécurité résidentielle",
                "Stratégie marketing digital",
                "Création de contenu",
                "Analyse des données",
                "Programmes de fidélisation",
                "Experts en automatisation résidentielle",
                "Spécialistes en systèmes de contrôle",
                "Consultants en intégration de technologies domotiques"
              ],
              "Associated_Risks": [
                "Dépassement des coûts et gestion inefficace des ressources",
                "Perte de membres et baisse de l'engagement communautaire",
                "Difficulté à se démarquer dans un marché saturé et concurrentiel"
              ], 
              "Freelance_Services": [
                {
                  "Mission": "Entraînement personnel",
                  "Description": "Fournir des séances d'entraînement personnalisées pour aider les clients à atteindre leurs objectifs de remise en forme."
                },
                {
                  "Mission": "Marketing",
                  "Description": "Élaborer des stratégies de marketing pour promouvoir les événements sportifs, les clubs ou les athlètes professionnels."
                }
              ]
            }
          }
        }
      }
    }
  }
}
